./cmake-build-release/nQueens 8 1
Timer - Parallel N-Queens: 319 us 
Solution: 92
Timer - Parallel N-Queens: 318 us 
Solution: 92
Timer - Parallel N-Queens: 308 us 
Solution: 92
Timer - Parallel N-Queens: 318 us 
Solution: 92
Timer - Parallel N-Queens: 309 us 
Solution: 92
./cmake-build-release/nQueens 10 1
Timer - Parallel N-Queens: 6932 us 
Solution: 724
Timer - Parallel N-Queens: 6906 us 
Solution: 724
Timer - Parallel N-Queens: 6920 us 
Solution: 724
Timer - Parallel N-Queens: 6912 us 
Solution: 724
Timer - Parallel N-Queens: 6891 us 
Solution: 724
./cmake-build-release/nQueens 11 1
Timer - Parallel N-Queens: 36790 us 
Solution: 2680
Timer - Parallel N-Queens: 36803 us 
Solution: 2680
Timer - Parallel N-Queens: 36790 us 
Solution: 2680
Timer - Parallel N-Queens: 36768 us 
Solution: 2680
Timer - Parallel N-Queens: 36749 us 
Solution: 2680
./cmake-build-release/nQueens 12 1
Timer - Parallel N-Queens: 212346 us 
Solution: 14200
Timer - Parallel N-Queens: 212415 us 
Solution: 14200
Timer - Parallel N-Queens: 212311 us 
Solution: 14200
Timer - Parallel N-Queens: 212357 us 
Solution: 14200
Timer - Parallel N-Queens: 212283 us 
Solution: 14200
./cmake-build-release/nQueens 13 1
Timer - Parallel N-Queens: 1303491 us 
Solution: 73712
Timer - Parallel N-Queens: 1302042 us 
Solution: 73712
Timer - Parallel N-Queens: 1302064 us 
Solution: 73712
Timer - Parallel N-Queens: 1302037 us 
Solution: 73712
Timer - Parallel N-Queens: 1302074 us 
Solution: 73712
./cmake-build-release/nQueens 14 1
Timer - Parallel N-Queens: 8540833 us 
Solution: 365596
Timer - Parallel N-Queens: 8535940 us 
Solution: 365596
Timer - Parallel N-Queens: 8542362 us 
Solution: 365596
Timer - Parallel N-Queens: 8534813 us 
Solution: 365596
Timer - Parallel N-Queens: 8541432 us 
Solution: 365596
./cmake-build-release/mergeSort 2500000 1
Timer - Parallel Merge Sort: 369775 us 
Array is sorted. 
Timer - Parallel Merge Sort: 368188 us 
Array is sorted. 
Timer - Parallel Merge Sort: 371982 us 
Array is sorted. 
Timer - Parallel Merge Sort: 369532 us 
Array is sorted. 
Timer - Parallel Merge Sort: 372701 us 
Array is sorted. 
./cmake-build-release/mergeSort 5000000 1
Timer - Parallel Merge Sort: 775079 us 
Array is sorted. 
Timer - Parallel Merge Sort: 843577 us 
Array is sorted. 
Timer - Parallel Merge Sort: 875791 us 
Array is sorted. 
Timer - Parallel Merge Sort: 815209 us 
Array is sorted. 
Timer - Parallel Merge Sort: 948072 us 
Array is sorted. 
./cmake-build-release/mergeSort 10000000 1
Timer - Parallel Merge Sort: 1614629 us 
Array is sorted. 
Timer - Parallel Merge Sort: 1613000 us 
Array is sorted. 
Timer - Parallel Merge Sort: 1669591 us 
Array is sorted. 
Timer - Parallel Merge Sort: 1803463 us 
Array is sorted. 
Timer - Parallel Merge Sort: 1862542 us 
Array is sorted. 
./cmake-build-release/mergeSort 25000000 1
Timer - Parallel Merge Sort: 4285044 us 
Array is sorted. 
Timer - Parallel Merge Sort: 4416774 us 
Array is sorted. 
Timer - Parallel Merge Sort: 4294905 us 
Array is sorted. 
Timer - Parallel Merge Sort: 4406827 us 
Array is sorted. 
Timer - Parallel Merge Sort: 4277487 us 
Array is sorted. 
./cmake-build-release/mergeSort 100000000 1
Timer - Parallel Merge Sort: 18383355 us 
Array is sorted. 
Timer - Parallel Merge Sort: 18534418 us 
Array is sorted. 
Timer - Parallel Merge Sort: 18253482 us 
Array is sorted. 
Timer - Parallel Merge Sort: 18444794 us 
Array is sorted. 
Timer - Parallel Merge Sort: 18250259 us 
Array is sorted. 
./cmake-build-release/piEstimation 1000000 1
Timer - Parallel Pi Estimation: 3769 us 
Estimated Pi value: 3.1407835483551025
Timer - Parallel Pi Estimation: 3768 us 
Estimated Pi value: 3.1407835483551025
Timer - Parallel Pi Estimation: 3758 us 
Estimated Pi value: 3.1407835483551025
Timer - Parallel Pi Estimation: 3764 us 
Estimated Pi value: 3.1407835483551025
Timer - Parallel Pi Estimation: 3755 us 
Estimated Pi value: 3.1407835483551025
./cmake-build-release/piEstimation 10000000 1
Timer - Parallel Pi Estimation: 37370 us 
Estimated Pi value: 3.1408486366271973
Timer - Parallel Pi Estimation: 37313 us 
Estimated Pi value: 3.1408486366271973
Timer - Parallel Pi Estimation: 37438 us 
Estimated Pi value: 3.1408486366271973
Timer - Parallel Pi Estimation: 37342 us 
Estimated Pi value: 3.1408486366271973
Timer - Parallel Pi Estimation: 37349 us 
Estimated Pi value: 3.1408486366271973
./cmake-build-release/piEstimation 25000000 1
Timer - Parallel Pi Estimation: 93210 us 
Estimated Pi value: 3.1411464214324951
Timer - Parallel Pi Estimation: 93382 us 
Estimated Pi value: 3.1411464214324951
Timer - Parallel Pi Estimation: 93174 us 
Estimated Pi value: 3.1411464214324951
Timer - Parallel Pi Estimation: 93087 us 
Estimated Pi value: 3.1411464214324951
Timer - Parallel Pi Estimation: 93141 us 
Estimated Pi value: 3.1411464214324951
./cmake-build-release/piEstimation 50000000 1
Timer - Parallel Pi Estimation: 186248 us 
Estimated Pi value: 3.1414480209350586
Timer - Parallel Pi Estimation: 186277 us 
Estimated Pi value: 3.1414480209350586
Timer - Parallel Pi Estimation: 186517 us 
Estimated Pi value: 3.1414480209350586
Timer - Parallel Pi Estimation: 186244 us 
Estimated Pi value: 3.1414480209350586
Timer - Parallel Pi Estimation: 186101 us 
Estimated Pi value: 3.1414480209350586
./cmake-build-release/piEstimation 100000000 1
Timer - Parallel Pi Estimation: 372549 us 
Estimated Pi value: 3.1414651870727539
Timer - Parallel Pi Estimation: 372372 us 
Estimated Pi value: 3.1414651870727539
Timer - Parallel Pi Estimation: 372369 us 
Estimated Pi value: 3.1414651870727539
Timer - Parallel Pi Estimation: 372510 us 
Estimated Pi value: 3.1414651870727539
Timer - Parallel Pi Estimation: 372481 us 
Estimated Pi value: 3.1414651870727539
